{
  "ImageData": [
    "key",
    "image"
  ],
  "ImageClassificationData": [
    "key",
    "image",
    "label"
  ],
  "ImageCoarseClassificationData": [
    "key",
    "image",
    "label",
    "coarse_label"
  ],
  "ImageSegmentationData": [
    "key",
    "image",
    "label_image"
  ],
  "ImageInstanceSegmentationData": [
    "key",
    "image",
    "label_image",
    "instance_image"
  ],
  "MaskedImageSegmentationData": [
    "key",
    "image",
    "label_image",
    "mask"
  ],
  "ImageDisparitySegmentationData": [
    "key",
    "image",
    "label_image",
    "disparity_image"
  ],
  "SaliencyData": [
    "key",
    "image",
    "experiments"
  ],
  "SaliencyExperiment": [
    "locations",
    "map"
  ],
  "SaliencyTimeseriesExperiment": [
    "locations",
    "map",
    "timestamps",
    "fixations"
  ],
  "ADE20kData": [
    "key",
    "image",
    "label",
    "label_image",
    "parts_images"
  ],
  "ANP460Data": [
    "key",
    "image",
    "experiments",
    "anp",
    "type"
  ],
  "ANP460Experiment": [
    "locations",
    "map",
    "answer",
    "duration"
  ],
  "Places2017Data": [
    "key",
    "image",
    "label",
    "label_image",
    "instance_image",
    "boundary"
  ]
}
